<?xml version="1.0" encoding="utf-8"?>
<!-- Generator: Adobe Illustrator 18.1.1, SVG Export Plug-In . SVG Version: 6.00 Build 0)  -->
<svg version="1.1" xmlns="http://www.w3.org/2000/svg" xmlns:xlink="http://www.w3.org/1999/xlink" x="0px" y="0px"
	 viewBox="0 0 138 137" style="enable-background:new 0 0 138 137;" xml:space="preserve">
<g id="Layer_4_2_" style="display:none;">
	<rect x="-15" y="-17" style="display:inline;fill:#0017A0;" width="173" height="173"/>
</g>
<g id="Layer_1">
	<g id="Layer_3" style="display:none;">
		<rect x="-5.9" y="4.2" style="display:inline;stroke:#FFFFFF;stroke-miterlimit:10;" width="65.2" height="42.5"/>
	</g>
	<g id="Layer_4_1_">
		
			<circle style="fill:none;stroke:#232323;stroke-width:6;stroke-linecap:round;stroke-linejoin:round;stroke-miterlimit:10;" cx="66.4" cy="66.7" r="62.9"/>
		
			<polyline style="fill:none;stroke:#232323;stroke-width:6;stroke-linecap:round;stroke-linejoin:round;stroke-miterlimit:10;" points="
			68.6,39.5 93.8,64.7 68.6,89.8 		"/>
		
			<line style="fill:none;stroke:#232323;stroke-width:6;stroke-linecap:round;stroke-linejoin:round;stroke-miterlimit:10;" x1="91.1" y1="64" x2="37.8" y2="64"/>
	</g>
</g>
<g id="Layer_2" style="display:none;">
	<g id="Layer_4" style="display:inline;">
		
			<circle style="fill:none;stroke:#FFFFFF;stroke-width:6;stroke-linecap:round;stroke-linejoin:round;stroke-miterlimit:10;" cx="66.7" cy="66.9" r="62.9"/>
		
			<polyline style="fill:none;stroke:#FFFFFF;stroke-width:6;stroke-linecap:round;stroke-linejoin:round;stroke-miterlimit:10;" points="
			68.9,39.7 94.1,64.8 68.9,90 		"/>
		
			<line style="fill:none;stroke:#FFFFFF;stroke-width:6;stroke-linecap:round;stroke-linejoin:round;stroke-miterlimit:10;" x1="91.4" y1="64.2" x2="38.1" y2="64.2"/>
	</g>
</g>
<g id="Layer_3_1_" style="display:none;">
</g>
</svg>
