<?xml version="1.0" encoding="utf-8"?>
<!-- Generator: Adobe Illustrator 18.1.1, SVG Export Plug-In . SVG Version: 6.00 Build 0)  -->
<svg version="1.1" xmlns="http://www.w3.org/2000/svg" xmlns:xlink="http://www.w3.org/1999/xlink" x="0px" y="0px"
	 viewBox="0 0 94.2 39.4" style="enable-background:new 0 0 94.2 39.4;" xml:space="preserve">
<g id="Layer_2" style="display:none;">
	<path style="display:inline;fill:#ED2027;" d="M13.2,2c3.1,0.2,6.1,0.3,9.1,0.9c0.4,0.1,0.8,0.3,1,0.6c4.5,4.5,8.9,9,13.4,13.5
		c1,1,1,2,0,3.1c-3.8,3.8-7.6,7.7-11.4,11.5c-1.1,1.1-2.1,1.1-3.2,0c-4.4-4.5-8.9-9-13.3-13.4c-0.8-0.8-1.2-1.7-1.3-2.8
		C7.4,13,7.2,10.6,7.1,8.2c0-0.8,0.1-1.6,0.2-2.4c0-0.3,0.2-0.6,0.5-0.9c0.9-0.8,1.8-1.6,2.7-2.4c0.2-0.2,0.5-0.3,0.8-0.4
		C12,2.1,12.7,2,13.2,2z M31.8,18.5c-0.1-0.2-0.2-0.3-0.3-0.4c-3.3-3.2-6.6-6.3-9.9-9.5c-0.3-0.3-0.5-0.3-0.8,0
		c-2.4,2.4-4.8,4.8-7.2,7.2c-0.1,0.1-0.2,0.2-0.3,0.4c3.6,3.4,7.1,6.7,10.7,10.1C26.5,23.7,29.2,21.1,31.8,18.5z M16.2,8.9
		c0-1.3-1-2.3-2.3-2.3c-1.2,0-2.3,1-2.3,2.3c0,1.2,1.1,2.3,2.3,2.3C15.2,11.3,16.2,10.2,16.2,8.9z"/>
	<path style="display:inline;fill:#FFFFFF;" d="M63.2,2c3.1,0.2,6.1,0.3,9.1,0.9c0.4,0.1,0.8,0.3,1,0.6c4.5,4.5,8.9,9,13.4,13.5
		c1,1,1,2,0,3.1c-3.8,3.8-7.6,7.7-11.4,11.5c-1.1,1.1-2.1,1.1-3.2,0c-4.4-4.5-8.9-9-13.3-13.4c-0.8-0.8-1.2-1.7-1.3-2.8
		c-0.1-2.4-0.3-4.8-0.4-7.3c0-0.8,0.1-1.6,0.2-2.4c0-0.3,0.2-0.6,0.5-0.9c0.9-0.8,1.8-1.6,2.7-2.4c0.2-0.2,0.5-0.3,0.8-0.4
		C62,2.1,62.7,2,63.2,2z M81.8,18.5c-0.1-0.2-0.2-0.3-0.3-0.4c-3.3-3.2-6.6-6.3-9.9-9.5c-0.3-0.3-0.5-0.3-0.8,0
		c-2.4,2.4-4.8,4.8-7.2,7.2c-0.1,0.1-0.2,0.2-0.3,0.4c3.6,3.4,7.1,6.7,10.7,10.1C76.5,23.7,79.2,21.1,81.8,18.5z M66.2,8.9
		c0-1.3-1-2.3-2.3-2.3c-1.2,0-2.3,1-2.3,2.3c0,1.2,1.1,2.3,2.3,2.3C65.2,11.3,66.2,10.2,66.2,8.9z"/>
</g>
<g id="Layer_3" style="display:none;">
	<rect x="0" y="4.3" style="display:inline;fill:none;" width="40.3" height="29.3"/>
	
		<text transform="matrix(1 0 0 1 3.051758e-05 24.7029)" style="display:inline;fill:#ED1C24; font-family:'Arial-BoldMT'; font-size:23.7424;">12+</text>
	<g style="display:inline;">
		<path style="fill:#FFFFFF;" d="M61.7,24.7h-3.3V12.4c-1.2,1.1-2.6,1.9-4.2,2.5v-3c0.9-0.3,1.8-0.8,2.8-1.6c1-0.8,1.7-1.7,2.1-2.7
			h2.6V24.7z"/>
		<path style="fill:#FFFFFF;" d="M77.6,21.7v3H66.2c0.1-1.1,0.5-2.2,1.1-3.3c0.6-1,1.8-2.4,3.7-4.1c1.5-1.4,2.4-2.3,2.7-2.8
			c0.4-0.7,0.7-1.3,0.7-2c0-0.7-0.2-1.3-0.6-1.7c-0.4-0.4-0.9-0.6-1.6-0.6c-0.7,0-1.2,0.2-1.6,0.6c-0.4,0.4-0.6,1.1-0.7,2l-3.2-0.3
			c0.2-1.8,0.8-3.1,1.8-3.9c1-0.8,2.3-1.2,3.8-1.2c1.7,0,3,0.5,4,1.4c1,0.9,1.4,2,1.4,3.4c0,0.8-0.1,1.5-0.4,2.2s-0.7,1.4-1.3,2.2
			c-0.4,0.5-1.1,1.2-2.1,2.2c-1,0.9-1.7,1.6-2,1.9c-0.3,0.3-0.5,0.6-0.7,0.9H77.6z"/>
		<path style="fill:#FFFFFF;" d="M84.2,22.3v-4.4h-4.5v-3h4.5v-4.4h3v4.4h4.5v3h-4.5v4.4H84.2z"/>
	</g>
</g>
<g id="Layer_4" style="display:none;">
	<path style="display:inline;fill:#ED2027;" d="M31.6,7.2c-1,1-2,2-2.9,2.9c0.5,1.3,1.2,2.6,1.6,4c1.6,6.1-2.2,12.4-8.4,13.9
		c-0.8,0.2-1,0.5-0.9,1.2c0,0.3,0,0.7,0,1.2c1,0,1.9,0,2.8,0c1.4,0,2.3,1.3,1.7,2.5c-0.4,0.7-1,1-1.7,1c-0.9,0-1.8,0-2.8,0
		c0,1,0,1.9,0,2.8c-0.1,1.4-1.3,2.2-2.5,1.7c-0.7-0.3-1-0.9-1-1.6c0-0.9,0-1.8,0-2.9c-0.9,0-1.8,0-2.7,0c-1.2,0-2-0.7-2-1.7
		c0-1.1,0.7-1.8,2-1.8c0.9,0,1.7,0,2.7,0c0-0.7,0.1-1.2,0-1.8c0-0.2-0.4-0.5-0.6-0.5c-3-0.7-5.3-2.2-7.1-4.7
		C4.8,16.2,9.4,6.3,18,5.5c2.7-0.2,5.2,0.3,7.4,1.8c0.4,0.3,0.7,0.3,1-0.1c0.8-0.8,1.6-1.7,2.6-2.6c-0.5,0-0.9,0-1.3-0.1
		c-1.1-0.1-1.7-0.9-1.6-1.9C26.2,1.7,26.9,1,28,1c1.8,0,3.7,0,5.5,0c1,0,1.7,0.7,1.7,1.7c0,1.8,0,3.6,0,5.3c0,1.1-0.7,1.9-1.7,1.9
		c-1,0-1.8-0.7-1.8-1.9C31.6,7.8,31.6,7.5,31.6,7.2z M19.2,24.8c4.4,0,8-3.6,8-7.9c0-4.3-3.6-7.9-8-7.9c-4.4,0-8,3.5-8,7.9
		C11.2,21.2,14.7,24.8,19.2,24.8z"/>
	<path style="display:inline;fill:#FFFFFF;" d="M86.6,7.1c-1,1-2,2-2.9,2.9c0.5,1.3,1.2,2.6,1.6,4c1.6,6.1-2.2,12.4-8.4,13.9
		c-0.8,0.2-1,0.5-0.9,1.2c0,0.3,0,0.7,0,1.2c1,0,1.9,0,2.8,0c1.4,0,2.3,1.3,1.7,2.5c-0.4,0.7-1,1-1.7,1c-0.9,0-1.8,0-2.8,0
		c0,1,0,1.9,0,2.8c-0.1,1.4-1.3,2.2-2.5,1.7c-0.7-0.3-1-0.9-1-1.6c0-0.9,0-1.8,0-2.9c-0.9,0-1.8,0-2.7,0c-1.2,0-2-0.7-2-1.7
		c0-1.1,0.7-1.8,2-1.8c0.9,0,1.7,0,2.7,0c0-0.7,0.1-1.2,0-1.8c0-0.2-0.4-0.5-0.6-0.5c-3-0.7-5.3-2.2-7.1-4.7
		c-4.9-7.1-0.3-17,8.3-17.8c2.7-0.2,5.2,0.3,7.4,1.8c0.4,0.3,0.7,0.3,1-0.1c0.8-0.8,1.6-1.7,2.6-2.6c-0.5,0-0.9,0-1.3-0.1
		c-1.1-0.1-1.7-0.9-1.6-1.9c0.1-0.9,0.8-1.6,1.8-1.6c1.8,0,3.7,0,5.5,0c1,0,1.7,0.7,1.7,1.7c0,1.8,0,3.6,0,5.3
		c0,1.1-0.7,1.9-1.7,1.9c-1,0-1.8-0.7-1.8-1.9C86.6,7.7,86.6,7.4,86.6,7.1z M74.2,24.7c4.4,0,8-3.6,8-7.9c0-4.3-3.6-7.9-8-7.9
		c-4.4,0-8,3.5-8,7.9C66.2,21.2,69.7,24.7,74.2,24.7z"/>
</g>
<g id="Layer_5" style="display:none;">
	<path style="display:inline;fill:#ED1D2B;" d="M15.6,38.8c-0.9-1.8-1.7-3.5-2.5-5.1c-2.7-5.4-5.3-10.7-8-16.1
		C1.5,10.6,5.9,2,13.7,0.7c6.5-1.1,12.6,3.3,13.6,9.8c0.4,2.5,0,4.8-1.1,7c-3.2,6.4-6.3,12.7-9.5,19.1C16.4,37.3,16,38,15.6,38.8z
		 M10.7,10.9c0,2.7,2.2,4.9,4.8,4.9c2.8,0,5-2.1,5-4.9c0-2.7-2.2-4.9-4.8-4.9C12.9,5.9,10.7,8.1,10.7,10.9z"/>
	<path style="display:inline;fill:#FFFFFF;" d="M79.6,38.8c-0.9-1.8-1.7-3.5-2.5-5.1c-2.7-5.4-5.3-10.7-8-16.1
		C65.5,10.6,69.9,2,77.7,0.7c6.5-1.1,12.6,3.3,13.6,9.8c0.4,2.5,0,4.8-1.1,7c-3.2,6.4-6.3,12.7-9.5,19.1C80.4,37.3,80,38,79.6,38.8z
		 M74.7,10.9c0,2.7,2.2,4.9,4.8,4.9c2.8,0,5-2.1,5-4.9c0-2.7-2.2-4.9-4.8-4.9C76.9,5.9,74.7,8.1,74.7,10.9z"/>
</g>
<g id="Layer_6">
	<g>
		<rect x="9.5" y="4.6" style="fill:none;stroke:#ED1D32;stroke-width:2;stroke-miterlimit:10;" width="22.9" height="30.5"/>
		<line style="fill:none;stroke:#ED1D32;stroke-width:2;stroke-miterlimit:10;" x1="12.3" y1="11.9" x2="29.8" y2="11.9"/>
		<line style="fill:none;stroke:#ED1D32;stroke-width:2;stroke-miterlimit:10;" x1="12.3" y1="17" x2="29.8" y2="17"/>
		<line style="fill:none;stroke:#ED1D32;stroke-width:2;stroke-miterlimit:10;" x1="12.3" y1="22.5" x2="29.8" y2="22.5"/>
		<line style="fill:none;stroke:#ED1D32;stroke-width:2;stroke-miterlimit:10;" x1="12.2" y1="27.9" x2="23.6" y2="27.9"/>
	</g>
	<g>
		<rect x="67.5" y="4.6" style="fill:none;stroke:#FFFFFF;stroke-width:2;stroke-miterlimit:10;" width="22.9" height="30.5"/>
		<line style="fill:none;stroke:#FFFFFF;stroke-width:2;stroke-miterlimit:10;" x1="70.3" y1="11.9" x2="87.8" y2="11.9"/>
		<line style="fill:none;stroke:#FFFFFF;stroke-width:2;stroke-miterlimit:10;" x1="70.3" y1="17" x2="87.8" y2="17"/>
		<line style="fill:none;stroke:#FFFFFF;stroke-width:2;stroke-miterlimit:10;" x1="70.3" y1="22.5" x2="87.8" y2="22.5"/>
		<line style="fill:none;stroke:#FFFFFF;stroke-width:2;stroke-miterlimit:10;" x1="70.2" y1="27.9" x2="81.6" y2="27.9"/>
	</g>
</g>
</svg>
