<?xml version="1.0" encoding="utf-8"?>
<!-- Generator: Adobe Illustrator 18.1.1, SVG Export Plug-In . SVG Version: 6.00 Build 0)  -->
<svg version="1.1" xmlns="http://www.w3.org/2000/svg" xmlns:xlink="http://www.w3.org/1999/xlink" x="0px" y="0px"
	 viewBox="0 0 100 50" style="enable-background:new 0 0 100 50;" xml:space="preserve">
<g id="Layer_1" style="display:none;">
	<g id="Layer_2" style="display:inline;">
		<rect x="-0.6" y="6.5" width="103.7" height="37.9"/>
	</g>
	<g id="Layer_1_1_">
		<g style="display:inline;">
			<path style="fill:#E01E26;" d="M28.5,38.3H10.1c-2.4,0-4.3-1.9-4.3-4.3V15.8c0-2.4,1.9-4.3,4.3-4.3h18.4c2.4,0,4.3,1.9,4.3,4.3
				v18.4C32.8,36.5,30.9,38.3,28.5,38.3z"/>
			<g>
				<path style="fill:#FFFFFF;stroke:#FFFFFF;stroke-width:0.5657;stroke-miterlimit:10;" d="M16.6,28.8v-0.6
					c-0.1-1.2,0.3-2.6,1.4-3.9c1-1.2,1.6-2.1,1.6-3.1c0-1.2-0.7-1.9-2.1-1.9c-0.8,0-1.7,0.3-2.3,0.7l-0.5-1.4c0.7-0.5,2-0.9,3.2-0.9
					c2.6,0,3.8,1.6,3.8,3.3c0,1.5-0.9,2.6-1.9,3.9c-1,1.2-1.4,2.2-1.3,3.3v0.6H16.6z M16.1,31.9c0-0.8,0.6-1.4,1.4-1.4
					s1.3,0.6,1.3,1.4c0,0.8-0.5,1.4-1.4,1.4C16.7,33.2,16.1,32.7,16.1,31.9z"/>
			</g>
			<g>
				<path style="fill:#FFFFFF;" d="M88.5,38.3H70.1c-2.4,0-4.3-1.9-4.3-4.3V15.8c0-2.4,1.9-4.3,4.3-4.3h18.4c2.4,0,4.3,1.9,4.3,4.3
					v18.4C92.8,36.5,90.9,38.3,88.5,38.3z"/>
				<g>
					<path style="stroke:#000000;stroke-width:0.5657;stroke-miterlimit:10;" d="M76.6,28.8v-0.6c-0.1-1.2,0.3-2.6,1.4-3.9
						c1-1.2,1.6-2.1,1.6-3.1c0-1.2-0.7-1.9-2.1-1.9c-0.8,0-1.7,0.3-2.3,0.7l-0.5-1.4c0.7-0.5,2-0.9,3.2-0.9c2.6,0,3.8,1.6,3.8,3.3
						c0,1.5-0.9,2.6-1.9,3.9c-1,1.2-1.4,2.2-1.3,3.3v0.6H76.6z M76.1,31.9c0-0.8,0.6-1.4,1.4-1.4s1.3,0.6,1.3,1.4
						c0,0.8-0.5,1.4-1.4,1.4C76.7,33.2,76.1,32.7,76.1,31.9z"/>
				</g>
			</g>
		</g>
	</g>
	<g id="Layer_3">
		<g style="display:inline;">
			<g>
				<g>
					<path style="fill:#DF2027;" d="M11.2,24.5c1.8,2.7,3.3,5.4,4.6,8.4c0.8,1.9,3.3,1,3.9-0.5c2-5.1,4.2-10.2,8.1-14.2
						c1.9-2-1.1-5-3-3c-4.4,4.5-6.9,10.3-9.2,16.1c1.3-0.2,2.6-0.3,3.9-0.5c-1.3-2.9-2.8-5.7-4.6-8.4C13.3,20,9.6,22.1,11.2,24.5
						L11.2,24.5z"/>
				</g>
			</g>
		</g>
		<g style="display:inline;">
			<g>
				<g>
					<path style="fill:#FFFFFF;" d="M71.2,24.5c1.8,2.7,3.3,5.4,4.6,8.4c0.8,1.9,3.3,1,3.9-0.5c2-5.1,4.2-10.2,8.1-14.2
						c1.9-2-1.1-5-3-3c-4.4,4.5-6.9,10.3-9.2,16.1c1.3-0.2,2.6-0.3,3.9-0.5c-1.3-2.9-2.8-5.7-4.6-8.4C73.3,20,69.6,22.1,71.2,24.5
						L71.2,24.5z"/>
				</g>
			</g>
		</g>
	</g>
	<g id="Layer_4">
		<g style="display:inline;">
			<path style="fill:none;stroke:#DE2227;stroke-width:2.1348;stroke-miterlimit:10;" d="M19.6,24.9c4.6,1.2,6.4,4.3,6.4,8.6
				c-5.9,0-11.7,0-17.5,0c-0.1-3,1.9-7.2,6.5-8.6c-1.9-1.2-2.9-2.8-2.7-5c0.1-1.3,0.7-2.4,1.7-3.3c2.1-1.9,5.4-1.6,7.2,0.6
				C22.9,19.1,22.9,22.9,19.6,24.9z"/>
			<circle style="fill:#DE2428;" cx="26.1" cy="30.9" r="3.5"/>
			<g>
				<path style="fill:#1D1D1B;stroke:#1D1D1B;stroke-width:0.6722;stroke-miterlimit:10;" d="M26.4,29c0,0.2-0.1,0.3-0.3,0.3
					c-0.2,0-0.3-0.1-0.3-0.3c0-0.2,0.1-0.3,0.3-0.3C26.3,28.6,26.4,28.9,26.4,29z M25.8,32.8v-3h0.5v3H25.8z"/>
			</g>
		</g>
		<g style="display:inline;">
			<path style="fill:none;stroke:#FFFFFF;stroke-width:2.1348;stroke-miterlimit:10;" d="M79.6,24.9c4.6,1.2,6.4,4.3,6.4,8.6
				c-5.9,0-11.7,0-17.5,0c-0.1-3,1.9-7.2,6.5-8.6c-1.9-1.2-2.9-2.8-2.7-5c0.1-1.3,0.7-2.4,1.7-3.3c2.1-1.9,5.4-1.6,7.2,0.6
				C82.9,19.1,82.9,22.9,79.6,24.9z"/>
			<circle style="fill:#FFFFFF;" cx="86.1" cy="30.9" r="3.5"/>
			<g>
				<path style="fill:#1D1D1B;stroke:#1D1D1B;stroke-width:0.6722;stroke-miterlimit:10;" d="M86.4,29c0,0.2-0.1,0.3-0.3,0.3
					c-0.2,0-0.3-0.1-0.3-0.3c0-0.2,0.1-0.3,0.3-0.3C86.3,28.6,86.4,28.9,86.4,29z M85.8,32.8v-3h0.5v3H85.8z"/>
			</g>
		</g>
	</g>
	<g id="Layer_5" style="display:inline;">
		<g>
			<rect x="10" y="14.5" style="fill:none;stroke:#DD2627;stroke-width:2.266;stroke-miterlimit:10;" width="15.3" height="20.4"/>
			<line style="fill:none;stroke:#DD2627;stroke-width:2.266;stroke-miterlimit:10;" x1="11.9" y1="19.5" x2="23.6" y2="19.5"/>
			<line style="fill:none;stroke:#DD2627;stroke-width:2.266;stroke-miterlimit:10;" x1="11.9" y1="22.9" x2="23.6" y2="22.9"/>
			<line style="fill:none;stroke:#DD2627;stroke-width:2.266;stroke-miterlimit:10;" x1="11.9" y1="26.5" x2="23.6" y2="26.5"/>
			<line style="fill:none;stroke:#DD2627;stroke-width:1.8296;stroke-miterlimit:10;" x1="11.8" y1="30.1" x2="19.4" y2="30.1"/>
		</g>
		<g>
			<rect x="70" y="14.5" style="fill:none;stroke:#FFFFFF;stroke-width:2.266;stroke-miterlimit:10;" width="15.3" height="20.4"/>
			<line style="fill:none;stroke:#FFFFFF;stroke-width:2.266;stroke-miterlimit:10;" x1="71.9" y1="19.5" x2="83.6" y2="19.5"/>
			<line style="fill:none;stroke:#FFFFFF;stroke-width:2.266;stroke-miterlimit:10;" x1="71.9" y1="22.9" x2="83.6" y2="22.9"/>
			<line style="fill:none;stroke:#FFFFFF;stroke-width:2.266;stroke-miterlimit:10;" x1="71.9" y1="26.5" x2="83.6" y2="26.5"/>
			<line style="fill:none;stroke:#FFFFFF;stroke-width:1.8296;stroke-miterlimit:10;" x1="71.8" y1="30.1" x2="79.4" y2="30.1"/>
		</g>
	</g>
</g>
<g id="Layer_2_1_">
	<polygon style="fill:#FFFFFF;stroke:#FFFFFF;stroke-width:2;stroke-miterlimit:10;" points="17.9,11.3 22.1,19.8 31.5,21.2 
		24.7,27.8 26.3,37.2 17.9,32.8 9.5,37.2 11.1,27.8 4.3,21.2 13.7,19.8 	"/>
	<polygon style="stroke:#FFFFFF;stroke-width:2;stroke-miterlimit:10;" points="77.9,11.3 82.1,19.8 91.5,21.2 84.7,27.8 86.3,37.2 
		77.9,32.8 69.5,37.2 71.1,27.8 64.3,21.2 73.7,19.8 	"/>
</g>
</svg>
