<?xml version="1.0" encoding="utf-8"?>
<!-- Generator: Adobe Illustrator 18.1.1, SVG Export Plug-In . SVG Version: 6.00 Build 0)  -->
<svg version="1.1" xmlns="http://www.w3.org/2000/svg" xmlns:xlink="http://www.w3.org/1999/xlink" x="0px" y="0px"
	 viewBox="0 0 400 400" style="enable-background:new 0 0 400 400;" xml:space="preserve">
<g id="Layer_1" style="display:none;">
	
		<circle style="display:inline;fill:none;stroke:#1D1E1C;stroke-width:18.9958;stroke-linecap:round;stroke-linejoin:round;stroke-miterlimit:10;" cx="200.3" cy="199.6" r="189.1"/>
	<g style="display:inline;">
		<path d="M203.6,60.2c-41.8,0-75.8,34-75.8,75.8v137.4c0,41.8,34,75.8,75.8,75.8c41.8,0,75.8-34,75.8-75.8V136
			C279.4,94.2,245.4,60.2,203.6,60.2L203.6,60.2z M203.6,73.4c34.5,0,62.6,28.1,62.6,62.6v62.1H140.9V136
			C140.9,101.5,169,73.4,203.6,73.4L203.6,73.4z M203.6,336c-34.5,0-62.6-28.1-62.6-62.6v-62.1h125.2v62.1
			C266.2,307.9,238.1,336,203.6,336L203.6,336z M203.6,336"/>
		<path d="M157,250c3.7,0,6.6-3,6.6-6.6V228c0-3.7-3-6.6-6.6-6.6c-3.7,0-6.6,3-6.6,6.6v15.4C150.4,247.1,153.4,250,157,250L157,250z
			 M157,250"/>
		<path d="M203.6,313.3c-22,0-39.9-17.9-39.9-39.9v-8c0-3.7-3-6.6-6.6-6.6c-3.7,0-6.6,3-6.6,6.6v8c0,29.3,23.8,53.1,53.1,53.1
			c3.7,0,6.6-3,6.6-6.6S207.2,313.3,203.6,313.3L203.6,313.3z M203.6,313.3"/>
		<path d="M228.3,104.7c9.6,7.6,15.2,19,15.2,31.3v50.3c0,3.7,3,6.6,6.6,6.6s6.6-3,6.6-6.6V136c0-16.3-7.4-31.5-20.2-41.7
			c-2.9-2.3-7-1.8-9.3,1.1C225,98.3,225.4,102.5,228.3,104.7L228.3,104.7z M228.3,104.7"/>
		<path d="M203.6,96.1c3.4,0,6.8,0.4,10.1,1.3c0.6,0.1,1.1,0.2,1.7,0.2c2.9,0,5.6-2,6.4-4.9c0.9-3.5-1.2-7.1-4.7-8.1
			c-4.4-1.1-8.9-1.7-13.4-1.7c-3.7,0-6.6,3-6.6,6.6C196.9,93.1,199.9,96.1,203.6,96.1L203.6,96.1z M203.6,96.1"/>
	</g>
</g>
<g id="bier-icon" style="display:none;">
	
		<circle style="display:inline;fill:none;stroke:#1D1E1C;stroke-width:19.0049;stroke-linecap:round;stroke-linejoin:round;stroke-miterlimit:10;" cx="200.6" cy="200.2" r="189.2"/>
	<g style="display:inline;">
		<path style="fill:#221E20;" d="M164.8,211.3c-3.9,0-7,3.2-7,7v55.2c0,3.9,3.2,7,7,7s7-3.2,7-7v-55.2
			C171.8,214.4,168.6,211.3,164.8,211.3L164.8,211.3z M164.8,211.3"/>
		<path style="fill:#221E20;" d="M218,211.3c-3.9,0-7,3.2-7,7v55.2c0,3.9,3.2,7,7,7c3.9,0,7-3.2,7-7v-55.2
			C225.1,214.4,221.9,211.3,218,211.3L218,211.3z M218,211.3"/>
		<path style="fill:#221E20;" d="M279.1,158.5h-8.1v-8c3.1-5.2,4.9-11.2,4.9-17.7c0-17.4-13.1-31.9-30-34
			c-3.2-15.7-17-27.5-33.6-27.5c-9.6,0-18.7,4-25.1,10.9c-3.3-1-6.7-1.6-10.2-1.6c-12.8,0-24.5,7.3-30.3,18.3
			c-1.8-0.3-3.7-0.5-5.5-0.5c-18.9,0-34.3,15.4-34.3,34.3c0,6.5,1.8,12.5,4.9,17.7v129.4c0,23.3,18.9,42.2,42.2,42.2h74.6
			c21.5,0,39.3-16.2,41.9-37h8.5c15.5,0,28.1-12.6,28.1-28.1v-70.4C307.2,171.1,294.6,158.5,279.1,158.5L279.1,158.5z M141.2,112.6
			c2.5,0,4.9,0.4,7.2,1.3c1.8,0.7,3.9,0.6,5.7-0.3c1.8-0.9,3.1-2.5,3.6-4.3c2.5-8.6,10.5-14.6,19.4-14.6c3.2,0,6.3,0.8,9.2,2.2
			c3.2,1.7,7.2,0.6,9.1-2.4c3.7-5.8,10.1-9.2,16.9-9.2c11.1,0,20.1,9,20.2,20.1c0,0.1,0,0.1,0,0.2c0,2,0.8,3.8,2.3,5.2
			c1.4,1.3,3.4,2,5.3,1.9c0.6,0,1.1-0.1,1.5-0.1c11.1,0,20.2,9.1,20.2,20.2c0,11.1-9.1,20.2-20.2,20.2h-59.8c-3.9,0-7,3.2-7,7v25.8
			c0,3.9-3.1,7-7,7c-3.9,0-7-3.1-7-7V160c0-3.9-3.2-7-7-7h-12.6c-11.1,0-20.2-9.1-20.2-20.2C121,121.6,130.1,112.6,141.2,112.6
			L141.2,112.6z M256.8,279.9c0,15.5-12.6,28.2-28.2,28.2h-74.6c-15.5,0-28.2-12.6-28.2-28.2V163.4c4.6,2.3,9.8,3.6,15.3,3.6h5.5
			v18.8c0,11.6,9.5,21.1,21.1,21.1c11.6,0,21.1-9.5,21.1-21.1V167h52.7c5.5,0,10.7-1.3,15.3-3.6V279.9z M293.1,257
			c0,7.7-6.3,14.1-14.1,14.1h-8.1v-98.5h8.1c7.8,0,14.1,6.3,14.1,14.1V257z M293.1,257"/>
	</g>
</g>
<g id="Layer_3">
	
		<circle style="fill:none;stroke:#1D1E1C;stroke-width:18.9958;stroke-linecap:round;stroke-linejoin:round;stroke-miterlimit:10;" cx="200" cy="199.7" r="189.1"/>
	<g>
		<g>
			<defs>
				<rect id="SVGID_1_" x="121.4" y="61.6" width="157.3" height="276.2"/>
			</defs>
			<clipPath id="SVGID_2_">
				<use xlink:href="#SVGID_1_"  style="overflow:visible;"/>
			</clipPath>
			<path style="clip-path:url(#SVGID_2_);" d="M271.6,102.9h-13.5c-3.9,0-7.2,3.2-7.2,7.2v1c0,1.6-0.3,3.2-0.8,4.6V94.5
				c0-3.9-3.2-7.2-7.2-7.2h-57.2V68.8c0-3.9-3.2-7.2-7.2-7.2h-21.5c-3.9,0-7.2,3.2-7.2,7.2v47c-0.5-1.5-0.8-3-0.8-4.6v-1
				c0-3.9-3.2-7.2-7.2-7.2h-13.5c-3.9,0-7.2,3.2-7.2,7.2V315c0,12.5,10.2,22.7,22.7,22.7H256c12.5,0,22.7-10.2,22.7-22.7V110.1
				C278.7,106.1,275.5,102.9,271.6,102.9L271.6,102.9z M235.8,123.4h-7.2v-21.7h7.2V123.4z M214.4,123.4h-7.2v-21.7h7.2V123.4z
				 M192.9,101.7v21.7h-7.2v-21.7H192.9z M164.3,75.9h7.2v47.5h-7.2V75.9z M163.5,139.7h73.1c13.5,0,24.8-9.4,27.8-21.9V226
				l-59.6-52.5c-2.7-2.4-6.8-2.4-9.5,0L135.7,226V117.8C138.7,130.3,150,139.7,163.5,139.7L163.5,139.7z M256,323.5H144.1
				c-4.7,0-8.4-3.8-8.4-8.4v-70l64.4-56.7l64.4,56.7v70C264.4,319.7,260.6,323.5,256,323.5L256,323.5z M256,323.5"/>
		</g>
	</g>
</g>
<g id="circle" style="display:none;">
	
		<circle style="display:inline;fill:none;stroke:#1D1E1C;stroke-width:10.7784;stroke-linecap:round;stroke-linejoin:round;stroke-miterlimit:10;" cx="199.3" cy="200.1" r="187.4"/>
</g>
</svg>
